\relax 
\@writefile{toc}{\contentsline {section}{\numberline {1}Introduction}{1}}
\@writefile{toc}{\contentsline {section}{\numberline {2}$\Theta $ Scheme}{1}}
\@writefile{toc}{\contentsline {section}{\numberline {3}Stability Analysis using eigenvalues}{2}}
\@writefile{lof}{\contentsline {figure}{\numberline {1}{\ignorespaces Stability plot fot $\theta $ method}}{2}}
\newlabel{eig}{{1}{2}}
\@writefile{toc}{\contentsline {section}{\numberline {4}Convergence study}{2}}
\@writefile{toc}{\contentsline {subsection}{\numberline {4.1}Explicit ($\theta = 0$)}{3}}
\@writefile{lof}{\contentsline {figure}{\numberline {2}{\ignorespaces Convergence plot for $\theta =0$}}{3}}
\@writefile{lof}{\contentsline {figure}{\numberline {3}{\ignorespaces Solution for $\mu =0.2$ and $\theta =0$}}{3}}
\@writefile{lof}{\contentsline {figure}{\numberline {4}{\ignorespaces Solution for $\mu =0.2$ and $\theta =0$}}{4}}
\@writefile{lof}{\contentsline {figure}{\numberline {5}{\ignorespaces Solution for $\mu =0.6$ and $\theta =0$ (Blowup. Unstable)}}{4}}
\@writefile{toc}{\contentsline {subsection}{\numberline {4.2}Implicit ($\theta = 1$)}{5}}
\@writefile{lof}{\contentsline {figure}{\numberline {6}{\ignorespaces Convergence plot for $\theta =1$}}{5}}
\@writefile{lof}{\contentsline {figure}{\numberline {7}{\ignorespaces Solution for $\mu =0.2$ and $\theta =1$}}{5}}
\@writefile{lof}{\contentsline {figure}{\numberline {8}{\ignorespaces Solution for $\mu =0.2$ and $\theta =1$}}{6}}
\@writefile{lof}{\contentsline {figure}{\numberline {9}{\ignorespaces Solution for $\mu =2.0$ and $\theta =1$}}{6}}
\@writefile{toc}{\contentsline {subsection}{\numberline {4.3}CN ($\theta = 0.5$)}{7}}
\@writefile{lof}{\contentsline {figure}{\numberline {10}{\ignorespaces Convergence plot for $\theta =0.5$}}{7}}
\@writefile{lof}{\contentsline {figure}{\numberline {11}{\ignorespaces Solution for $\mu =0.2$ and $\theta =0.5$}}{7}}
\@writefile{lof}{\contentsline {figure}{\numberline {12}{\ignorespaces Solution for $\mu =0.2$ and $\theta =0.5$}}{8}}
\@writefile{lof}{\contentsline {figure}{\numberline {13}{\ignorespaces Solution for $\mu =0.6$ and $\theta =0.5$}}{8}}
\@writefile{toc}{\contentsline {subsection}{\numberline {4.4}$\theta = 0.6$}{9}}
\@writefile{lof}{\contentsline {figure}{\numberline {14}{\ignorespaces Convergence plot for $\theta =0.6$}}{9}}
\@writefile{lof}{\contentsline {figure}{\numberline {15}{\ignorespaces Solution for $\mu =0.2$ and $\theta =0.6$}}{9}}
\@writefile{lof}{\contentsline {figure}{\numberline {16}{\ignorespaces Solution for $\mu =0.2$ and $\theta =0.6$}}{10}}
\@writefile{lof}{\contentsline {figure}{\numberline {17}{\ignorespaces Solution for $\mu =2.0$ and $\theta =0.6$}}{10}}
\@writefile{toc}{\contentsline {subsection}{\numberline {4.5}$\theta = 0.4$}{11}}
\@writefile{lof}{\contentsline {figure}{\numberline {18}{\ignorespaces Convergence plot for $\theta =0.4$}}{11}}
\@writefile{lof}{\contentsline {figure}{\numberline {19}{\ignorespaces Solution for $\mu =0.2$ and $\theta =0.4$}}{11}}
\@writefile{lof}{\contentsline {figure}{\numberline {20}{\ignorespaces Solution for $\mu =0.2$ and $\theta =0.4$}}{12}}
\@writefile{lof}{\contentsline {figure}{\numberline {21}{\ignorespaces Solution for $\mu =2.0$ and $\theta =0.4$ (Unstable)}}{12}}
\@writefile{toc}{\contentsline {section}{\numberline {5}Code}{13}}
\@writefile{lol}{\contentsline {lstlisting}{main.py}{13}}
\@writefile{toc}{\contentsline {section}{\numberline {6}Conclusion}{15}}
