\relax 
\providecommand\hyper@newdestlabel[2]{}
\providecommand\HyperFirstAtBeginDocument{\AtBeginDocument}
\HyperFirstAtBeginDocument{\ifx\hyper@anchor\@undefined
\global\let\oldcontentsline\contentsline
\gdef\contentsline#1#2#3#4{\oldcontentsline{#1}{#2}{#3}}
\global\let\oldnewlabel\newlabel
\gdef\newlabel#1#2{\newlabelxx{#1}#2}
\gdef\newlabelxx#1#2#3#4#5#6{\oldnewlabel{#1}{{#2}{#3}}}
\AtEndDocument{\ifx\hyper@anchor\@undefined
\let\contentsline\oldcontentsline
\let\newlabel\oldnewlabel
\fi}
\fi}
\global\let\hyper@last\relax 
\gdef\HyperFirstAtBeginDocument#1{#1}
\providecommand\HyField@AuxAddToFields[1]{}
\providecommand\HyField@AuxAddToCoFields[2]{}
\providecommand \oddpage@label [2]{}
\@writefile{toc}{\contentsline {section}{\numberline {1}Governing equation}{1}{section.1}}
\@writefile{toc}{\contentsline {section}{\numberline {2}Scheme}{1}{section.2}}
\@writefile{toc}{\contentsline {subsection}{\numberline {2.1}Handling The first timestep}{1}{subsection.2.1}}
\@writefile{toc}{\contentsline {section}{\numberline {3}Main code}{2}{section.3}}
\@writefile{lol}{\contentsline {lstlisting}{solver.py}{2}{lstlisting.-1}}
\@writefile{toc}{\contentsline {section}{\numberline {4}Results}{3}{section.4}}
\@writefile{toc}{\contentsline {subsection}{\numberline {4.1}Right travelling sine wave}{3}{subsection.4.1}}
\@writefile{lof}{\contentsline {figure}{\numberline {1}{\ignorespaces Contour plot of solution variable for a sine wave computed using both approaches with $dt=0.1$ and $dx=0.2$}}{3}{figure.1}}
\@writefile{toc}{\contentsline {subsection}{\numberline {4.2}Right travelling sine wave with unstable method ($\lambda = 4$)}{4}{subsection.4.2}}
\@writefile{lof}{\contentsline {figure}{\numberline {2}{\ignorespaces Contour plot of solution variable for a sine wave computed using both approaches with $dt=0.2$ and $dx=0.1$}}{4}{figure.2}}
\@writefile{toc}{\contentsline {subsection}{\numberline {4.3}Convergence plots}{5}{subsection.4.3}}
\@writefile{lof}{\contentsline {figure}{\numberline {3}{\ignorespaces Mean absolute error for both approaches}}{5}{figure.3}}
\@writefile{toc}{\contentsline {section}{\numberline {5}Other systems}{6}{section.5}}
\@writefile{toc}{\contentsline {subsection}{\numberline {5.1}Zero boundary condition and Triangular initial condition}{6}{subsection.5.1}}
\@writefile{lof}{\contentsline {figure}{\numberline {4}{\ignorespaces Contour plot of solution variable for a triangular IC computed using both approaches with $dt=10^{-3}$ and $dx=10^{-2}$}}{6}{figure.4}}
\@writefile{toc}{\contentsline {subsection}{\numberline {5.2}Shock}{6}{subsection.5.2}}
\@writefile{lof}{\contentsline {figure}{\numberline {5}{\ignorespaces Contour plot of solution variable for a step IC computed using both approaches with $dt=10^{-3}$ and $dx=10^{-2}$}}{6}{figure.5}}
\@writefile{toc}{\contentsline {subsection}{\numberline {5.3}Boundary ramp}{7}{subsection.5.3}}
\@writefile{lof}{\contentsline {figure}{\numberline {6}{\ignorespaces Contour plot of solution variable for zero IC computed with boundaries ramping up to $1$ using both approaches with $dt=10^{-3}$ and $dx=10^{-2}$}}{7}{figure.6}}
